aiofiles==0.5.0
aiosqlite==0.16.0
astroid==2.4.2
async-exit-stack==1.0.1
async-generator==1.10
asyncpg==0.21.0
autopep8==1.5.3
bcrypt==3.2.0
binaryornot==0.4.4
cryptography==3.2.1
databases==0.4.1
DateTime==4.3
email-validator==1.1.2
fastapi==0.61.2
h11==0.9.0
itsdangerous==1.1.0
Jinja2==2.11.2
jinja2-time==0.2.0
orjson==3.4.3
passlib==1.7.4
psycopg2==2.8.6
pydantic==1.7.2
pylint==2.6.0
python-dateutil==2.8.1
python-jose==3.2.0
python-multipart==0.0.5
python-slugify==4.0.1
requests==2.24.0
rsa==4.6
SQLAlchemy==1.3.20
sqlparse==0.3.1
starlette==0.13.6
tablib==2.0.0
text-unidecode==1.3
typing-extensions==3.7.4.3
ujson==3.2.0
uuid==1.30
uvicorn==0.11.8
websockets==8.1
